Corpus Data Scraping and Sentiment Analysis
…
Remove Stop Words

# check stop_words data frame
stop_words %>%
  count(word) %>%
  arrange(-n)

## # A tibble: 728 x 2
##    word        n
##    <chr>   <int>
##  1 down        4
##  2 would       4
##  3 a           3
##  4 about       3
##  5 above       3
##  6 after       3
##  7 again       3
##  8 against     3
##  9 all         3
## 10 an          3
## #  with 718 more rows
…
# remove stop words from pencil reviews tokenized
pencil_reviews_clean <- pencil_reviews_tokenized %>%
  anti_join(my_stop_words)

## Joining, by = "word"

Count Token per Rating

# most frequent tokens per rate
pencil_reviews_clean %>%
  count(word, rate) %>%
  arrange(-n)

## # A tibble: 5,719 x 3
##    word       rate     n
##    <chr>     <dbl> <int>
##  1 pencils       5   845
##  2 great         5   519
##  3 sharpened     5   339
##  4 good          5   324
##  5 school        5   252
##  6 pencil        5   203
##  7 quality       5   190
##  8 price         5   181
##  9 pencils       1   159
## 10 pre           5   153
## #  with 5,709 more rows
…
## # A tibble: 2 x 2
##   sentiment     n
##   <chr>     <int>
## 1 negative   4781
## 2 positive   2005

We can use the function get_sentiments() to get the sentiments for different lexicons (these lexicons are available under different licenses, so be sure that the license for the lexicon you want to use is appropriate for your project).

# AFINN from Finn rup Nielsen (http://www2.imm.dtu.dk/pubdb/pubs/6010-full.html)
get_sentiments("afinn")

## # A tibble: 2,477 x 2
##    word       value
##    <chr>      <dbl>
##  1 abandon       -2
##  2 abandoned     -2
##  3 abandons      -2
##  4 abducted      -2
##  5 abduction     -2
##  6 abductions    -2
##  7 abhor         -3
##  8 abhorred      -3
##  9 abhorrent     -3
## 10 abhors        -3
## #  with 2,467 more rows

# bing from Bing Liu and collaborators (https://www.cs.uic.edu/~liub/FBS/sentiment-analysis.html)
get_sentiments("bing")

## # A tibble: 6,786 x 2
##    word        sentiment
##    <chr>       <chr>    
##  1 2-faces     negative 
##  2 abnormal    negative 
##  3 abolish     negative 
##  4 abominable  negative 
##  5 abominably  negative 
##  6 abominate   negative 
##  7 abomination negative 
##  8 abort       negative 
##  9 aborted     negative 
## 10 aborts      negative 
## #  with 6,776 more rows

# nrc from Saif Mohammad and Peter Turney (http://saifmohammad.com/WebPages/NRC-Emotion-Lexicon.htm)
get_sentiments("nrc")

## # A tibble: 13,901 x 2
##    word        sentiment
##    <chr>       <chr>    
##  1 abacus      trust    
##  2 abandon     fear     
##  3 abandon     negative 
##  4 abandon     sadness  
##  5 abandoned   anger    
##  6 abandoned   fear     
##  7 abandoned   negative 
##  8 abandoned   sadness  
##  9 abandonment anger    
## 10 abandonment fear     
## #  with 13,891 more rows
…
